<?xml version="1.0" encoding="UTF-8" standalone="no"?>
<svg
   xmlns:dc="http://purl.org/dc/elements/1.1/"
   xmlns:cc="http://creativecommons.org/ns#"
   xmlns:rdf="http://www.w3.org/1999/02/22-rdf-syntax-ns#"
   xmlns:svg="http://www.w3.org/2000/svg"
   xmlns="http://www.w3.org/2000/svg"
   xmlns:sodipodi="http://sodipodi.sourceforge.net/DTD/sodipodi-0.dtd"
   xmlns:inkscape="http://www.inkscape.org/namespaces/inkscape"
   width="300"
   height="117"
   id="svg15699"
   viewBox="0 0 300 117"
   sodipodi:version="0.32"
   inkscape:version="1.0beta1 (a4ee55bc41, 2019-11-15)"
   sodipodi:docname="interpolate-f20.svg"
   inkscape:output_extension="org.inkscape.output.svg.inkscape"
   inkscape:export-filename="C:\docbook\interpolate\interpolate-f19.svg.png"
   inkscape:export-xdpi="258.88"
   inkscape:export-ydpi="258.88"
   version="1.1">
  <sodipodi:namedview
     inkscape:window-maximized="0"
     inkscape:window-y="27"
     inkscape:window-x="54"
     inkscape:window-height="1053"
     inkscape:window-width="1866"
     inkscape:guide-bbox="true"
     showguides="true"
     units="px"
     showgrid="false"
     inkscape:document-rotation="0"
     inkscape:current-layer="layer1"
     inkscape:document-units="px"
     inkscape:cy="58.5"
     inkscape:cx="160"
     inkscape:zoom="1.4"
     inkscape:pageshadow="2"
     inkscape:pageopacity="0.0"
     borderopacity="1.0"
     bordercolor="#666666"
     pagecolor="#ffffff"
     id="base"
     inkscape:lockguides="true" />
  <defs
     id="defs15701" />
  <metadata
     id="metadata15704">
    <rdf:RDF>
      <cc:Work
         rdf:about="">
        <dc:format>image/svg+xml</dc:format>
        <dc:type
           rdf:resource="http://purl.org/dc/dcmitype/StillImage" />
        <dc:title />
      </cc:Work>
    </rdf:RDF>
  </metadata>
  <g
     inkscape:label="Layer 1"
     id="layer1"
     inkscape:groupmode="layer">
    <g
       id="g2805"
       transform="translate(11.084375,-19.385686)">
      <path
         id="path2180"
         d="m 20,132.36218 75,-32.85714 85.71429,33.57143 77.14285,-32.85714"
         style="fill:none;fill-rule:evenodd;stroke:#35b8ff;stroke-width:5.5;stroke-linecap:butt;stroke-linejoin:miter;stroke-miterlimit:4;stroke-dasharray:none;stroke-opacity:1"
         inkscape:connector-curvature="0" />
      <path
         d="m 20,55.219323 75,-32.85714 85.71429,33.57143 77.14285,-32.85714"
         id="path3007"
         style="fill:none;fill-rule:evenodd;stroke:#ffed35;stroke-width:5.5;stroke-linecap:butt;stroke-linejoin:miter;stroke-miterlimit:4;stroke-dasharray:none;stroke-opacity:1"
         inkscape:connector-curvature="0" />
      <g
         id="g2785">
        <path
           style="fill:none;fill-rule:evenodd;stroke:#f3e940;stroke-width:5.5;stroke-linecap:butt;stroke-linejoin:miter;stroke-miterlimit:4;stroke-dasharray:none;stroke-opacity:1"
           d="m 20,59.757138 c 0,0 75,-32.85714 75,-32.85714 0,0 85.71429,33.57143 85.71429,33.57143 0,0 77.14285,-32.85714 77.14285,-32.85714"
           id="path4932"
           inkscape:connector-curvature="0" />
        <path
           style="fill:none;fill-rule:evenodd;stroke:#e7e64c;stroke-width:5.5;stroke-linecap:butt;stroke-linejoin:miter;stroke-miterlimit:4;stroke-dasharray:none;stroke-opacity:1"
           d="m 20,64.294953 c 0,0 75,-32.85714 75,-32.85714 0,0 85.71429,33.57143 85.71429,33.57143 0,0 77.14285,-32.85714 77.14285,-32.85714"
           id="path4934"
           inkscape:connector-curvature="0" />
        <path
           style="fill:none;fill-rule:evenodd;stroke:#dbe358;stroke-width:5.5;stroke-linecap:butt;stroke-linejoin:miter;stroke-miterlimit:4;stroke-dasharray:none;stroke-opacity:1"
           d="m 20,68.832768 c 0,0 75,-32.85714 75,-32.85714 0,0 85.71429,33.57143 85.71429,33.57143 0,0 77.14285,-32.85714 77.14285,-32.85714"
           id="path4936"
           inkscape:connector-curvature="0" />
        <path
           style="fill:none;fill-rule:evenodd;stroke:#cfe064;stroke-width:5.5;stroke-linecap:butt;stroke-linejoin:miter;stroke-miterlimit:4;stroke-dasharray:none;stroke-opacity:1"
           d="m 20,73.370583 c 0,0 75,-32.85714 75,-32.85714 0,0 85.71429,33.57143 85.71429,33.57143 0,0 77.14285,-32.85714 77.14285,-32.85714"
           id="path4938"
           inkscape:connector-curvature="0" />
        <path
           style="fill:none;fill-rule:evenodd;stroke:#c3dd70;stroke-width:5.5;stroke-linecap:butt;stroke-linejoin:miter;stroke-miterlimit:4;stroke-dasharray:none;stroke-opacity:1"
           d="m 20,77.908399 c 0,0 75,-32.85714 75,-32.85714 0,0 85.71429,33.57143 85.71429,33.57143 0,0 77.14285,-32.85714 77.14285,-32.85714"
           id="path4940"
           inkscape:connector-curvature="0" />
        <path
           style="fill:none;fill-rule:evenodd;stroke:#b7da7c;stroke-width:5.5;stroke-linecap:butt;stroke-linejoin:miter;stroke-miterlimit:4;stroke-dasharray:none;stroke-opacity:1"
           d="m 20,82.446214 c 0,0 75,-32.85714 75,-32.85714 0,0 85.71429,33.57143 85.71429,33.57143 0,0 77.14285,-32.85714 77.14285,-32.85714"
           id="path4942"
           inkscape:connector-curvature="0" />
        <path
           style="fill:none;fill-rule:evenodd;stroke:#abd788;stroke-width:5.5;stroke-linecap:butt;stroke-linejoin:miter;stroke-miterlimit:4;stroke-dasharray:none;stroke-opacity:1"
           d="m 20,86.984029 c 0,0 75,-32.85714 75,-32.85714 0,0 85.71429,33.57143 85.71429,33.57143 0,0 77.14285,-32.85714 77.14285,-32.85714"
           id="path4944"
           inkscape:connector-curvature="0" />
        <path
           style="fill:none;fill-rule:evenodd;stroke:#9fd494;stroke-width:5.5;stroke-linecap:butt;stroke-linejoin:miter;stroke-miterlimit:4;stroke-dasharray:none;stroke-opacity:1"
           d="m 20,91.521844 c 0,0 75,-32.85714 75,-32.85714 0,0 85.71429,33.57143 85.71429,33.57143 0,0 77.14285,-32.85714 77.14285,-32.85714"
           id="path4946"
           inkscape:connector-curvature="0" />
        <path
           style="fill:none;fill-rule:evenodd;stroke:#94d09f;stroke-width:5.5;stroke-linecap:butt;stroke-linejoin:miter;stroke-miterlimit:4;stroke-dasharray:none;stroke-opacity:1"
           d="m 20,96.059659 c 0,0 75,-32.85714 75,-32.85714 0,0 85.71429,33.57143 85.71429,33.57143 0,0 77.14285,-32.85714 77.14285,-32.85714"
           id="path4948"
           inkscape:connector-curvature="0" />
        <path
           style="fill:none;fill-rule:evenodd;stroke:#88cdab;stroke-width:5.5;stroke-linecap:butt;stroke-linejoin:miter;stroke-miterlimit:4;stroke-dasharray:none;stroke-opacity:1"
           d="m 20,100.59747 c 0,0 75,-32.857136 75,-32.857136 0,0 85.71429,33.571426 85.71429,33.571426 0,0 77.14285,-32.857136 77.14285,-32.857136"
           id="path4950"
           inkscape:connector-curvature="0" />
        <path
           style="fill:none;fill-rule:evenodd;stroke:#7ccab7;stroke-width:5.5;stroke-linecap:butt;stroke-linejoin:miter;stroke-miterlimit:4;stroke-dasharray:none;stroke-opacity:1"
           d="m 20,105.13529 c 0,0 75,-32.857141 75,-32.857141 0,0 85.71429,33.571431 85.71429,33.571431 0,0 77.14285,-32.857141 77.14285,-32.857141"
           id="path4952"
           inkscape:connector-curvature="0" />
        <path
           style="fill:none;fill-rule:evenodd;stroke:#70c7c3;stroke-width:5.5;stroke-linecap:butt;stroke-linejoin:miter;stroke-miterlimit:4;stroke-dasharray:none;stroke-opacity:1"
           d="m 20,109.6731 c 0,0 75,-32.857136 75,-32.857136 0,0 85.71429,33.571426 85.71429,33.571426 0,0 77.14285,-32.857136 77.14285,-32.857136"
           id="path4954"
           inkscape:connector-curvature="0" />
        <path
           style="fill:none;fill-rule:evenodd;stroke:#64c4cf;stroke-width:5.5;stroke-linecap:butt;stroke-linejoin:miter;stroke-miterlimit:4;stroke-dasharray:none;stroke-opacity:1"
           d="m 20,114.21092 c 0,0 75,-32.85714 75,-32.85714 0,0 85.71429,33.57143 85.71429,33.57143 0,0 77.14285,-32.85714 77.14285,-32.85714"
           id="path4956"
           inkscape:connector-curvature="0" />
        <path
           style="fill:none;fill-rule:evenodd;stroke:#58c1db;stroke-width:5.5;stroke-linecap:butt;stroke-linejoin:miter;stroke-miterlimit:4;stroke-dasharray:none;stroke-opacity:1"
           d="m 20,118.74873 c 0,0 75,-32.857135 75,-32.857135 0,0 85.71429,33.571425 85.71429,33.571425 0,0 77.14285,-32.857135 77.14285,-32.857135"
           id="path4958"
           inkscape:connector-curvature="0" />
        <path
           style="fill:none;fill-rule:evenodd;stroke:#4cbee7;stroke-width:5.5;stroke-linecap:butt;stroke-linejoin:miter;stroke-miterlimit:4;stroke-dasharray:none;stroke-opacity:1"
           d="m 20,123.28655 c 0,0 75,-32.85714 75,-32.85714 0,0 85.71429,33.57143 85.71429,33.57143 0,0 77.14285,-32.85714 77.14285,-32.85714"
           id="path4960"
           inkscape:connector-curvature="0" />
        <path
           style="fill:none;fill-rule:evenodd;stroke:#40bbf3;stroke-width:5.5;stroke-linecap:butt;stroke-linejoin:miter;stroke-miterlimit:4;stroke-dasharray:none;stroke-opacity:1"
           d="m 20,127.82436 c 0,0 75,-32.857135 75,-32.857135 0,0 85.71429,33.571425 85.71429,33.571425 0,0 77.14285,-32.857135 77.14285,-32.857135"
           id="path4962"
           inkscape:connector-curvature="0" />
      </g>
    </g>
  </g>
</svg>
