<?xml version="1.0" encoding="UTF-8" standalone="no"?>
<svg
   xmlns:dc="http://purl.org/dc/elements/1.1/"
   xmlns:cc="http://creativecommons.org/ns#"
   xmlns:rdf="http://www.w3.org/1999/02/22-rdf-syntax-ns#"
   xmlns:svg="http://www.w3.org/2000/svg"
   xmlns="http://www.w3.org/2000/svg"
   xmlns:sodipodi="http://sodipodi.sourceforge.net/DTD/sodipodi-0.dtd"
   xmlns:inkscape="http://www.inkscape.org/namespaces/inkscape"
   version="1.1"
   inkscape:output_extension="org.inkscape.output.svg.inkscape"
   sodipodi:docname="interpolate-f14.svg"
   inkscape:version="1.0beta1 (08a003b, 2019-11-10)"
   sodipodi:version="0.32"
   viewBox="0 0 300 31"
   id="svg15699"
   height="31"
   width="300">
  <defs
     id="defs15701" />
  <sodipodi:namedview
     inkscape:lockguides="true"
     id="base"
     pagecolor="#ffffff"
     bordercolor="#666666"
     borderopacity="1.0"
     inkscape:pageopacity="0.0"
     inkscape:pageshadow="2"
     inkscape:zoom="1.4"
     inkscape:cx="324.77314"
     inkscape:cy="-2.7978518"
     inkscape:document-units="px"
     inkscape:current-layer="layer1"
     inkscape:document-rotation="0"
     showgrid="false"
     units="px"
     showguides="true"
     inkscape:guide-bbox="true"
     inkscape:window-width="1866"
     inkscape:window-height="1016"
     inkscape:window-x="54"
     inkscape:window-y="27"
     inkscape:window-maximized="1" />
  <metadata
     id="metadata15704">
    <rdf:RDF>
      <cc:Work
         rdf:about="">
        <dc:format>image/svg+xml</dc:format>
        <dc:type
           rdf:resource="http://purl.org/dc/dcmitype/StillImage" />
        <dc:title></dc:title>
      </cc:Work>
    </rdf:RDF>
  </metadata>
  <g
     id="layer1"
     inkscape:groupmode="layer"
     inkscape:label="Layer 1">
    <g
       transform="translate(-14.749629,-18.39098)"
       id="g2749">
      <path
         inkscape:connector-curvature="0"
         style="fill:#00ff00;fill-opacity:1;stroke:#17a500;stroke-width:0.868842;stroke-linejoin:round;stroke-miterlimit:4;stroke-opacity:1"
         id="path6648"
         d="M 272.34758,45.832053 H 261.6942 l -5.3267,-9.226 5.3267,-9.2261 h 10.65338 l 5.32669,9.2261 z" />
      <path
         inkscape:connector-curvature="0"
         style="fill:#00ff00;fill-opacity:1;stroke:#17a500;stroke-width:0.796746;stroke-linejoin:round;stroke-miterlimit:4;stroke-opacity:1"
         d="m 47.746957,47.010153 c 0,0 -3.490162,-3.2745 -3.621001,-3.2745 -0.06542,0 -0.78972,4.8295 -0.871493,4.8295 -0.08178,0 -2.393507,-4.1658 -2.480734,-4.1658 -0.08723,0 -2.283111,4.3928 -2.364887,4.3928 -0.08178,0 -0.986426,-4.6493 -1.051846,-4.6493 -0.130839,0 -3.580998,3.5263 -3.580998,3.5263 0,0 0.605319,-4.7532 0.539898,-4.8665 -0.03271,-0.0567 -4.358885,2.1917 -4.399772,2.1209 -0.04089,-0.0709 1.978166,-4.3947 1.934554,-4.4702 -0.04361,-0.0756 -4.880586,0.725 -4.921473,0.6542 -0.04089,-0.0708 3.195449,-3.5398 3.162738,-3.5965 -0.06542,-0.1133 -4.938528,-0.8368 -4.938528,-0.8368 0,0 4.20941,-2.3001 4.274831,-2.4134 0.03271,-0.0566 -4.322017,-2.2314 -4.28113,-2.3022 0.02044,-0.0354 4.690886,-0.9003 4.712352,-0.9375 0.02147,-0.0372 -3.483,-3.4379 -3.461193,-3.4757 0.02181,-0.0377 4.721344,0.5734 4.742809,0.5363 0.02147,-0.0372 -2.271889,-4.3618 -2.251445,-4.3972 0.04089,-0.0708 4.327303,1.9257 4.360015,1.8691 0.06542,-0.1133 -0.767102,-4.9822 -0.767102,-4.9822 0,0 3.490159,3.2744 3.620998,3.2744 0.06542,0 0.78972,-4.8295 0.871494,-4.8295 0.08177,0 2.393507,4.1658 2.480734,4.1658 0.08723,0 2.283111,-4.3928 2.364885,-4.3928 0.08178,0 0.986427,4.6493 1.051848,4.6493 0.130839,0 3.580995,-3.5263 3.580995,-3.5263 0,0 -0.605316,4.7533 -0.539898,4.8666 0.03271,0.0567 4.358889,-2.1918 4.399779,-2.1209 0.04088,0.0708 -1.97817,4.3946 -1.93456,4.4702 0.02181,0.0377 4.83697,-0.8006 4.85844,-0.7635 0.02147,0.0372 -3.23191,3.4767 -3.21146,3.5122 0.04088,0.0708 4.90854,0.7848 4.94125,0.8415 0.06542,0.1133 -4.05676,2.4134 -4.05676,2.4134 0,0 4.34927,2.1842 4.28385,2.2975 -0.03271,0.0566 -4.72019,0.951 -4.76108,1.0218 -0.02044,0.0355 3.48471,3.435 3.46324,3.4721 -0.02146,0.0373 -4.721,-0.5739 -4.74281,-0.5362 -0.04361,0.0756 2.22726,4.4392 2.18637,4.51 -0.04089,0.0708 -4.327302,-1.9258 -4.360014,-1.8692 -0.06542,0.1134 0.767104,4.9823 0.767104,4.9823 0,0 0,0 0,0"
         id="path6650" />
      <g
         id="g7477"
         transform="matrix(0.5218716,0,0,0.5218716,15.003749,-683.70527)">
        <path
           inkscape:connector-curvature="0"
           style="fill:#00ff00;fill-opacity:1;stroke:#17a500;stroke-width:1.66486;stroke-linejoin:round;stroke-miterlimit:4;stroke-opacity:1"
           id="path7479"
           d="m 330.4506,1398.7783 c 0,0 -3.28537,-2.3716 -4.52526,-2.3716 -0.60702,0 -1.78379,3.4978 -2.54457,3.4978 -0.66182,0 -2.9751,-3.0171 -3.68632,-3.0171 -0.71141,0 -2.95904,3.1816 -3.65717,3.1816 -0.70686,0 -1.99081,-3.3673 -2.61954,-3.3673 -0.84803,0 -4.02046,2.5539 -4.55242,2.5539 -0.7604,0 -1.07075,-1.2605 -0.95447,-2.2742 0.0759,-0.6615 0.009,-1.4332 -0.22377,-1.8358 -0.2526,-0.4375 -3.71739,0.6166 -4.1385,-0.1128 -0.31893,-0.5524 0.82131,-4.2417 0.45217,-4.8811 -0.3453,-0.5981 -4.17557,-0.5848 -4.53184,-1.2019 -0.34543,-0.5983 1.68308,-3.657 1.35692,-4.2219 -0.39642,-0.6866 -4.25759,-1.7854 -4.55299,-2.297 -0.40265,-0.6974 2.31104,-2.9434 2.13978,-3.4042 -0.16741,-0.3193 -0.66548,-0.7042 -1.17844,-0.9712 -0.9222,-0.48 -1.95916,-1.5898 -1.52743,-2.3376 0.27437,-0.4753 3.97749,-1.6569 4.34864,-2.2997 0.31449,-0.5448 -1.8999,-3.5684 -1.55106,-4.1726 0.32173,-0.5572 4.03917,-0.6581 4.36445,-1.2215 0.34569,-0.5988 -0.98976,-4.2947 -0.66855,-4.851 0.36753,-0.6366 3.78664,0.2644 4.08236,-0.2478 0.62741,-1.0867 0.49026,-4.8455 0.42197,-5.2462 -0.005,-0.028 5.9e-4,-0.043 0.0159,-0.043 0.13627,0 3.38948,2.3715 4.52485,2.3715 0.60789,0 1.78441,-3.4978 2.54418,-3.4978 0.6622,0 2.97546,3.0171 3.68632,3.0171 0.71182,0 2.95955,-3.1815 3.65744,-3.1815 0.70753,0 1.99176,3.3672 2.62021,3.3672 0.84938,0 4.02188,-2.5539 4.55187,-2.5539 0.74698,0 1.05242,1.2252 0.93659,2.2312 -0.0783,0.6803 -0.009,1.4835 0.23066,1.8994 0.25444,0.4407 3.71887,-0.6141 4.13835,0.1125 0.31931,0.5531 -0.82089,4.2425 -0.45196,4.8815 0.32671,0.5658 4.13795,0.5196 4.47689,1.1067 0.32907,0.57 -1.7141,3.6033 -1.3989,4.1493 0.37859,0.6557 4.23584,1.7477 4.5551,2.3006 0.42807,0.7414 -2.23694,2.9624 -2.01768,3.3421 0.20041,0.3471 0.78853,0.785 1.36459,1.0804 0.91167,0.4676 1.84108,1.5006 1.42226,2.226 -0.28363,0.4913 -4.00411,1.7029 -4.39688,2.3832 -0.31298,0.5422 1.9021,3.5646 1.55324,4.1688 -0.32127,0.5565 -4.03887,0.6577 -4.36489,1.2223 -0.36648,0.6348 0.94766,4.3676 0.60695,4.9577 -0.36727,0.6362 -3.78646,-0.2647 -4.08275,0.2485 -0.63698,1.1033 -0.42635,5.3091 -0.42635,5.3091 0,0 0,0 0,0" />
        <path
           inkscape:connector-curvature="0"
           style="fill:#00ff00;fill-opacity:1;stroke:#17a500;stroke-width:1.66486;stroke-linejoin:round;stroke-miterlimit:4;stroke-opacity:1"
           id="path7481"
           d="m 263.0719,1399.1317 c 0,0 -4.14171,-3.3539 -5.13263,-3.3539 -0.4858,0 -1.7157,4.9466 -2.32444,4.9466 -0.53469,0 -3.38064,-4.2668 -3.95493,-4.2668 -0.57442,0 -3.31537,4.4994 -3.87723,4.4994 -0.56839,0 -1.96549,-4.762 -2.46753,-4.762 -0.69768,0 -4.73559,3.6117 -5.13366,3.6117 -0.56902,0 -0.69437,-1.7826 -0.52992,-3.2162 0.10732,-0.9355 0.095,-1.8835 -0.0914,-2.2064 -0.2048,-0.3547 -4.88397,1.5184 -5.21881,0.9385 -0.25838,-0.4476 1.56862,-5.2936 1.27136,-5.8085 -0.27943,-0.484 -5.47843,-0.088 -5.76475,-0.5838 -0.27821,-0.4819 2.80056,-4.4438 2.54072,-4.8939 -0.3282,-0.5685 -5.56775,-1.7395 -5.78881,-2.1224 -0.3013,-0.5219 3.75949,-3.3119 3.66288,-3.7113 -0.11963,-0.2487 -0.75702,-0.677 -1.48245,-1.0546 -1.30419,-0.6788 -2.94281,-1.9503 -2.60708,-2.5318 0.21518,-0.3727 5.23872,-1.6741 5.52681,-2.173 0.24569,-0.4256 -3.10149,-4.3283 -2.82993,-4.7986 0.25126,-0.4353 5.29955,-0.216 5.55332,-0.6555 0.26903,-0.4661 -1.83633,-5.3174 -1.5861,-5.7508 0.29474,-0.5105 4.92054,1.1266 5.15761,0.716 0.499,-0.8643 0.0472,-5.7334 -0.0493,-6.3001 -0.007,-0.039 -0.004,-0.06 0.007,-0.06 0.10197,0 4.21962,3.3538 5.13233,3.3538 0.48644,0 1.71616,-4.9466 2.32414,-4.9466 0.53498,0 3.38091,4.2668 3.95493,4.2668 0.57473,0 3.31576,-4.4993 3.87744,-4.4993 0.5689,0 1.96619,4.762 2.46802,4.762 0.69871,0 4.73666,-3.6118 5.13326,-3.6118 0.55897,0 0.68364,1.7326 0.51984,3.1553 -0.11079,0.9621 -0.0991,1.9495 0.0932,2.2827 0.20618,0.3571 4.88507,-1.5165 5.2187,-0.9387 0.25866,0.4481 -1.56831,5.2942 -1.27121,5.8088 0.255,0.4416 5.42925,0 5.69324,0.46 0.2566,0.4444 -2.84136,4.3731 -2.59563,4.7987 0.30302,0.5249 5.53701,1.6864 5.79169,2.1275 0.35188,0.6094 -3.63042,3.3807 -3.46634,3.6649 0.14997,0.2597 0.90456,0.7453 1.71922,1.1631 1.2893,0.6612 2.76497,1.8428 2.43222,2.4191 -0.22802,0.3949 -5.27276,1.733 -5.5864,2.2762 -0.24407,0.4228 3.10396,4.324 2.83255,4.7941 -0.25076,0.4344 -5.29917,0.2153 -5.55365,0.6561 -0.29527,0.5114 1.7833,5.4092 1.50862,5.8849 -0.29455,0.5102 -4.92042,-1.1268 -5.15791,-0.7155 -0.50821,0.8803 0.0509,6.3757 0.0509,6.3757 0,0 0,0 0,0" />
        <path
           inkscape:connector-curvature="0"
           style="fill:#00ff00;fill-opacity:1;stroke:#17a500;stroke-width:1.66486;stroke-linejoin:round;stroke-miterlimit:4;stroke-opacity:1"
           id="path7483"
           d="m 211.37041,1399.4028 c 0,0 -4.7988,-4.1076 -5.59869,-4.1076 -0.39277,0 -1.66345,6.0583 -2.15552,6.0583 -0.43714,0 -3.69183,-5.2257 -4.16104,-5.2257 -0.46931,0 -3.58881,5.5106 -4.0461,5.5106 -0.46214,0 -1.94605,-5.8323 -2.35087,-5.8323 -0.58233,0 -5.28434,4.4235 -5.57968,4.4235 -0.42216,0 -0.40555,-2.1832 -0.20415,-3.939 0.13144,-1.1458 0.16126,-2.2291 0.0102,-2.4908 -0.16812,-0.2912 -5.77911,2.2104 -6.04775,1.7451 -0.21192,-0.367 2.14205,-6.1007 1.89994,-6.52 -0.22889,-0.3965 -6.47815,0.2933 -6.7108,-0.1096 -0.22663,-0.3926 3.65804,-5.0475 3.44908,-5.4095 -0.27585,-0.4778 -6.57307,-1.7044 -6.73708,-1.9885 -0.22354,-0.3872 4.87092,-3.5946 4.8316,-3.947 -0.083,-0.1945 -0.82727,-0.6561 -1.71574,-1.1185 -1.5973,-0.8314 -3.69759,-2.2268 -3.43551,-2.6808 0.16975,-0.294 6.20649,-1.6872 6.43084,-2.0758 0.1929,-0.3341 -4.0235,-4.9113 -3.81124,-5.279 0.1972,-0.3416 6.26669,0.1233 6.46558,-0.2211 0.21021,-0.3642 -2.48593,-6.1021 -2.29017,-6.4412 0.23889,-0.4137 5.79062,1.7882 5.98269,1.4556 0.40047,-0.6937 -0.29271,-6.4148 -0.41098,-7.1089 -0.008,-0.048 -0.008,-0.074 2.7e-4,-0.074 0.0757,0 4.85661,4.1076 5.59847,4.1076 0.39325,0 1.66379,-6.0583 2.15531,-6.0583 0.43734,0 3.69202,5.2257 4.16103,5.2257 0.46954,0 3.58909,-5.5105 4.04625,-5.5105 0.46252,0 1.94657,5.8322 2.35124,5.8322 0.58309,0 5.28513,-4.4235 5.57937,-4.4235 0.41472,0 0.40068,2.122 0.20006,3.8644 -0.13568,1.1784 -0.16799,2.307 -0.0122,2.5769 0.16915,0.293 5.77993,-2.2091 6.04767,-1.7453 0.21213,0.3675 -2.14182,6.1011 -1.89982,6.5202 0.19997,0.3464 6.42009,-0.3938 6.62656,-0.036 0.20099,0.3481 -3.70633,4.9638 -3.51391,5.2971 0.24504,0.4244 6.53544,1.6393 6.74056,1.9946 0.29342,0.5082 -4.69966,3.7017 -4.57793,3.9125 0.11126,0.1927 0.99358,0.7149 1.99134,1.2266 1.57905,0.8099 3.47388,2.1054 3.20719,2.5673 -0.18535,0.3211 -6.24624,1.7561 -6.49916,2.1941 -0.19119,0.3312 4.02618,4.9068 3.8142,5.2739 -0.19666,0.3407 -6.26623,-0.1241 -6.46582,0.2216 -0.24063,0.4168 2.42451,6.2085 2.2005,6.5965 -0.23875,0.4135 -5.79053,-1.7884 -5.98291,-1.4552 -0.4094,0.7091 0.41713,7.194 0.41713,7.194 0,0 0,0 0,0" />
        <path
           inkscape:connector-curvature="0"
           style="fill:#00ff00;fill-opacity:1;stroke:#17a500;stroke-width:1.66486;stroke-linejoin:round;stroke-miterlimit:4;stroke-opacity:1"
           id="path7485"
           d="m 167.78403,1399.6315 c 0,0 -5.35275,-4.7431 -5.99159,-4.7431 -0.31435,0 -1.6194,6.9955 -2.01312,6.9955 -0.3549,0 -3.95417,-6.0341 -4.33479,-6.0341 -0.3807,0 -3.81932,6.363 -4.18846,6.363 -0.37257,0 -1.92967,-6.7345 -2.25253,-6.7345 -0.48509,0 -5.74695,5.1078 -5.95568,5.1078 -0.29836,0 -0.16208,-2.5209 0.0705,-4.5483 0.15177,-1.3232 0.21711,-2.5205 0.0958,-2.7306 -0.1372,-0.2376 -6.53374,2.7938 -6.74658,2.4252 -0.17275,-0.2992 2.62548,-6.7811 2.42986,-7.1199 -0.18627,-0.3227 -7.32095,0.6147 -7.50835,0.2901 -0.18314,-0.3172 4.38092,-5.5564 4.21486,-5.8441 -0.23171,-0.4013 -7.4206,-1.6748 -7.53651,-1.8755 -0.15798,-0.2737 5.8079,-3.833 5.81687,-4.1457 -0.0521,-0.1489 -0.88649,-0.6385 -1.91241,-1.1725 -1.8444,-0.96 -4.3339,-2.46 -4.13391,-2.8064 0.13146,-0.2277 7.02236,-1.6984 7.19298,-1.9938 0.14839,-0.2571 -4.8008,-5.403 -4.63853,-5.684 0.15163,-0.2627 7.08202,0.4093 7.23465,0.145 0.16063,-0.2783 -3.03357,-6.7637 -2.88373,-7.0231 0.19182,-0.3323 6.52415,2.3459 6.67827,2.0789 0.3174,-0.5497 -0.5793,-6.9891 -0.71587,-7.7907 -0.009,-0.056 -0.0115,-0.085 -0.005,-0.085 0.0535,0 5.39361,4.7431 5.99144,4.7431 0.31469,0 1.61964,-6.9955 2.01297,-6.9955 0.35504,0 3.9543,6.0341 4.33479,6.0341 0.38085,0 3.81952,-6.363 4.18856,-6.363 0.37284,0 1.93004,6.7345 2.2528,6.7345 0.48561,0 5.7475,-5.1078 5.95546,-5.1078 0.29309,0 0.16212,2.4503 -0.0695,4.4622 -0.15666,1.3607 -0.22602,2.6084 -0.10108,2.8248 0.13792,0.2389 6.53433,-2.7929 6.74653,-2.4253 0.1729,0.2995 -2.62532,6.7814 -2.42978,7.1201 0.15359,0.2659 7.25541,-0.7283 7.4134,-0.4547 0.15411,0.267 -4.43555,5.4619 -4.28807,5.7174 0.19616,0.3397 7.37716,1.5996 7.54051,1.8825 0.24413,0.4228 -5.60109,3.9723 -5.51506,4.1213 0.0786,0.1362 1.06864,0.6893 2.22075,1.2802 1.82333,0.9351 4.07153,2.3267 3.86052,2.6921 -0.14938,0.2588 -7.06692,1.7756 -7.26864,2.125 -0.14661,0.2539 4.80364,5.398 4.64177,5.6783 -0.15105,0.2617 -7.08151,-0.4102 -7.23482,-0.1447 -0.19458,0.337 2.96507,6.8823 2.78378,7.1963 -0.19171,0.3321 -6.52407,-2.346 -6.67842,-2.0788 -0.3261,0.5649 0.72586,7.8841 0.72586,7.8841 0,0 0,0 0,0" />
        <path
           inkscape:connector-curvature="0"
           style="fill:#00ff00;fill-opacity:1;stroke:#17a500;stroke-width:1.66486;stroke-linejoin:round;stroke-miterlimit:4;stroke-opacity:1"
           id="path7487"
           d="m 129.38367,1399.8329 c 0,0 -5.8408,-5.303 -6.33775,-5.303 -0.24526,0 -1.5806,7.8213 -1.88767,7.8213 -0.28244,0 -4.18529,-6.7464 -4.48787,-6.7464 -0.30262,0 -4.02241,7.1141 -4.31388,7.1141 -0.29365,0 -1.91523,-7.5294 -2.16589,-7.5294 -0.3994,0 -6.15452,5.7107 -6.28695,5.7107 -0.18928,0 0.0524,-2.8185 0.31245,-5.0852 0.16968,-1.4793 0.26631,-2.7771 0.17126,-2.9417 -0.10995,-0.1905 -7.198595,3.3077 -7.362268,3.0242 -0.138237,-0.2394 3.051388,-7.3806 2.896729,-7.6484 -0.148727,-0.2576 -8.063474,0.8979 -8.211005,0.6423 -0.144833,-0.2508 5.017797,-6.0048 4.889526,-6.227 -0.192831,-0.334 -8.167278,-1.6487 -8.240815,-1.776 -0.100232,-0.1736 6.633388,-4.043 6.684908,-4.3208 -0.02485,-0.1086 -0.938665,-0.623 -2.085672,-1.22 -2.062105,-1.0733 -4.894503,-2.6653 -4.749221,-2.917 0.09772,-0.1693 7.741154,-1.7082 7.864439,-1.9217 0.109182,-0.1891 -5.485607,-5.836 -5.367384,-6.0408 0.111471,-0.1931 7.80034,0.6614 7.912207,0.4677 0.116946,-0.2026 -3.51604,-7.3465 -3.406656,-7.5359 0.150333,-0.2604 7.170382,2.8373 7.291072,2.6282 0.24422,-0.423 -0.83178,-7.4952 -0.98447,-8.3913 -0.0106,-0.062 -0.0143,-0.095 -0.0105,-0.095 0.0339,0 5.86672,5.3029 6.33765,5.3029 0.24548,0 1.58075,-7.8212 1.88757,-7.8212 0.28253,0 4.18537,6.7463 4.48787,6.7463 0.30273,0 4.02253,-7.1141 4.31395,-7.1141 0.29382,0 1.91546,7.5294 2.16605,7.5294 0.39974,0 6.15487,-5.7107 6.28681,-5.7107 0.18595,0 -0.0481,2.7395 -0.30705,4.989 -0.17516,1.5212 -0.27715,2.8739 -0.1794,3.0432 0.11042,0.1912 7.19897,-3.3072 7.36224,-3.0244 0.13833,0.2397 -3.05128,7.3807 -2.89668,7.6485 0.11272,0.1952 7.99134,-1.0228 8.10661,-0.8232 0.11281,0.1954 -5.07799,5.9006 -4.9701,6.0875 0.15309,0.2652 8.11871,1.5647 8.24526,1.7838 0.20071,0.3476 -6.39525,4.2107 -6.34067,4.3053 0.0499,0.086 1.13476,0.6667 2.42286,1.3273 2.03855,1.0455 4.59806,2.5217 4.43611,2.8022 -0.11768,0.2039 -7.78995,1.7927 -7.94657,2.064 -0.10733,0.1859 5.48861,5.8308 5.37087,6.0347 -0.11087,0.1921 -7.79978,-0.6623 -7.91232,-0.4674 -0.15399,0.2667 3.44133,7.4759 3.29767,7.7247 -0.15027,0.2603 -7.17034,-2.8374 -7.29117,-2.6281 -0.25272,0.4378 0.99786,8.4919 0.99786,8.4919 0,0 0,0 0,0" />
        <path
           inkscape:connector-curvature="0"
           style="fill:#00ff00;fill-opacity:1;stroke:#17a500;stroke-width:1.66486;stroke-linejoin:round;stroke-miterlimit:4;stroke-opacity:1"
           id="path7489"
           d="m 94.667082,1400.015 c 0,0 -6.282026,-5.8091 -6.6507,-5.8091 -0.182797,0 -1.54551,8.5677 -1.774241,8.5677 -0.216938,0 -4.39424,-7.3902 -4.626265,-7.3902 -0.232048,0 -4.206012,7.793 -4.427278,7.793 -0.222303,0 -1.902171,-8.248 -2.087557,-8.248 -0.321943,0 -6.522993,6.2558 -6.586431,6.2558 -0.09068,0 0.246359,-3.0876 0.531187,-5.5706 0.185882,-1.6205 0.310794,-3.0092 0.239473,-3.1327 -0.08532,-0.1478 -7.799667,3.7724 -7.91889,3.5659 -0.107038,-0.1854 3.436434,-7.9225 3.31881,-8.1262 -0.114786,-0.1989 -8.734766,1.1539 -8.846256,0.9608 -0.110198,-0.1909 5.593574,-6.4102 5.499472,-6.5733 -0.157679,-0.2731 -8.842333,-1.6251 -8.877561,-1.6861 -0.04802,-0.083 7.379692,-4.2328 7.469677,-4.479 -2.34e-4,-0.072 -0.985833,-0.609 -2.242316,-1.2629 -2.258922,-1.1758 -5.401325,-2.8511 -5.3055,-3.0171 0.06722,-0.1164 8.390994,-1.717 8.471482,-1.8564 0.07373,-0.1277 -6.104721,-6.2275 -6.026318,-6.3633 0.07517,-0.1303 8.449751,0.8891 8.52477,0.7593 0.07745,-0.1342 -3.952231,-7.8735 -3.879423,-7.9995 0.112832,-0.1955 7.754626,3.2815 7.845098,3.1248 0.178056,-0.3084 -1.060052,-7.9527 -1.227316,-8.9344 -0.01162,-0.068 -0.01691,-0.1046 -0.01507,-0.1046 0.01625,0 6.294442,5.809 6.650652,5.809 0.182902,0 1.545582,-8.5677 1.774196,-8.5677 0.216977,0 4.394282,7.3903 4.626264,7.3903 0.232096,0 4.206073,-7.7931 4.427306,-7.7931 0.222388,0 1.902287,8.248 2.087641,8.248 0.322105,0 6.523158,-6.2557 6.586361,-6.2557 0.08908,0 -0.238054,3.0009 -0.521778,5.4651 -0.191878,1.6664 -0.323367,3.1139 -0.250193,3.2407 0.08555,0.1482 7.799847,-3.7722 7.918875,-3.5661 0.107083,0.1856 -3.436386,7.9226 -3.318784,8.1264 0.07576,0.1311 8.656681,-1.2892 8.733321,-1.1565 0.0755,0.1308 -5.658802,6.2973 -5.586711,6.4222 0.114152,0.1977 8.789141,1.533 8.882421,1.6945 0.16145,0.2797 -7.11324,4.4263 -7.08709,4.4716 0.0239,0.041 1.19453,0.6463 2.60558,1.37 2.23312,1.1452 5.07409,2.698 4.95649,2.9017 -0.089,0.1542 -8.44363,1.8082 -8.55947,2.0088 -0.07182,0.1245 6.10786,6.2222 6.03003,6.3569 -0.0745,0.1292 -8.449145,-0.8902 -8.524826,-0.7592 -0.117306,0.2033 3.871886,8.0127 3.762256,8.2026 -0.11281,0.1953 -7.754613,-3.2816 -7.845153,-3.1249 -0.186367,0.3229 1.24377,9.0415 1.24377,9.0415 0,0 0,0 0,0" />
      </g>
    </g>
  </g>
</svg>
