<?xml version="1.0" encoding="UTF-8" standalone="no"?>
<svg
   xmlns:dc="http://purl.org/dc/elements/1.1/"
   xmlns:cc="http://creativecommons.org/ns#"
   xmlns:rdf="http://www.w3.org/1999/02/22-rdf-syntax-ns#"
   xmlns:svg="http://www.w3.org/2000/svg"
   xmlns="http://www.w3.org/2000/svg"
   xmlns:sodipodi="http://sodipodi.sourceforge.net/DTD/sodipodi-0.dtd"
   xmlns:inkscape="http://www.inkscape.org/namespaces/inkscape"
   version="1.1"
   inkscape:output_extension="org.inkscape.output.svg.inkscape"
   sodipodi:docname="interpolate-f02.svg"
   inkscape:version="1.0beta1 (c8cd966, 2019-11-15)"
   sodipodi:version="0.32"
   viewBox="0 0 300 79"
   id="svg15699"
   height="79"
   width="300">
  <defs
     id="defs15701" />
  <sodipodi:namedview
     inkscape:lockguides="true"
     id="base"
     pagecolor="#ffffff"
     bordercolor="#666666"
     borderopacity="1.0"
     inkscape:pageopacity="0.0"
     inkscape:pageshadow="2"
     inkscape:zoom="3.959798"
     inkscape:cx="66.057011"
     inkscape:cy="40.561489"
     inkscape:document-units="px"
     inkscape:current-layer="g3003"
     inkscape:document-rotation="0"
     showgrid="false"
     units="px"
     showguides="true"
     inkscape:guide-bbox="true"
     inkscape:window-width="1866"
     inkscape:window-height="1016"
     inkscape:window-x="54"
     inkscape:window-y="27"
     inkscape:window-maximized="1" />
  <metadata
     id="metadata15704">
    <rdf:RDF>
      <cc:Work
         rdf:about="">
        <dc:format>image/svg+xml</dc:format>
        <dc:type
           rdf:resource="http://purl.org/dc/dcmitype/StillImage" />
        <dc:title />
      </cc:Work>
    </rdf:RDF>
  </metadata>
  <g
     id="layer1"
     inkscape:groupmode="layer"
     inkscape:label="Layer 1">
    <g
       transform="translate(10.003909,0.02037365)"
       id="g3003">
      <path
         inkscape:connector-curvature="0"
         style="fill:#00ccff;fill-opacity:1;stroke:#2e75ac;stroke-width:4.04816;stroke-linejoin:round;stroke-miterlimit:4;stroke-opacity:1"
         id="path4419"
         d="m 20.289581,2.0037052 c 10.11909,0 18.26551,8.1464198 18.26551,18.2655098 0,10.11913 -8.14642,18.26553 -18.26551,18.26553 -10.11909,0 -18.2655022,-8.1464 -18.2655022,-18.26553 0,-10.11909 8.1464122,-18.2655098 18.2655022,-18.2655098 z"
         inkscape:export-xdpi="88.379997"
         inkscape:export-filename="C:\Documents and Settings\ryan\Desktop\interpolate2.png"
         inkscape:export-ydpi="88.379997" />
      <path
         inkscape:connector-curvature="0"
         style="fill:#00ccff;fill-opacity:1;stroke:#2e75ac;stroke-width:4.04816;stroke-linejoin:round;stroke-miterlimit:4;stroke-opacity:1"
         id="path4421"
         d="m 245.43989,2.0037052 c 10.11909,0 18.2655,8.1464198 18.2655,18.2655098 0,10.11913 -8.14641,18.26553 -18.2655,18.26553 -10.11909,0 -18.26551,-8.1464 -18.26551,-18.26553 0,-10.11909 8.14642,-18.2655098 18.26551,-18.2655098 z"
         inkscape:export-xdpi="88.379997"
         inkscape:export-filename="C:\Documents and Settings\ryan\Desktop\interpolate2.png"
         inkscape:export-ydpi="88.379997" />
      <g
         transform="matrix(0.5218716,0,0,0.5218716,-12.141006,-26.068155)"
         inkscape:export-xdpi="88.379997"
         inkscape:export-filename="C:\Documents and Settings\ryan\Desktop\interpolate2.png"
         inkscape:export-ydpi="88.379997"
         id="g4423">
        <path
           inkscape:connector-curvature="0"
           style="fill:#00ccff;fill-opacity:1;stroke:#2e75ac;stroke-width:7.757;stroke-linejoin:round;stroke-miterlimit:4;stroke-opacity:1"
           d="m 123.77551,53.790756 c 19.39,0 35,15.61 35,35 0,19.390004 -15.61,35.000004 -35,35.000004 -19.39,0 -34.999998,-15.61 -34.999998,-35.000004 0,-19.39 15.609998,-35 34.999998,-35 0,0 0,0 0,0"
           id="path4425" />
        <path
           inkscape:connector-curvature="0"
           style="fill:#00ccff;fill-opacity:1;stroke:#2e75ac;stroke-width:7.757;stroke-linejoin:round;stroke-miterlimit:4;stroke-opacity:1"
           d="m 185.40817,53.790756 c 19.39,0 35,15.61 35,35 0,19.390004 -15.61,35.000004 -35,35.000004 -19.39,0 -35,-15.61 -35,-35.000004 0,-19.39 15.61,-35 35,-35 0,0 0,0 0,0"
           id="path4427" />
        <path
           inkscape:connector-curvature="0"
           style="fill:#00ccff;fill-opacity:1;stroke:#2e75ac;stroke-width:7.757;stroke-linejoin:round;stroke-miterlimit:4;stroke-opacity:1"
           d="m 247.04082,53.790756 c 19.39,0 35,15.61 35,35 0,19.390004 -15.61,35.000004 -35,35.000004 -19.39,0 -35,-15.61 -35,-35.000004 0,-19.39 15.61,-35 35,-35 0,0 0,0 0,0"
           id="path4429" />
        <path
           inkscape:connector-curvature="0"
           style="fill:#00ccff;fill-opacity:1;stroke:#2e75ac;stroke-width:7.757;stroke-linejoin:round;stroke-miterlimit:4;stroke-opacity:1"
           d="m 308.67348,53.790756 c 19.39,0 35,15.61 35,35 0,19.390004 -15.61,35.000004 -35,35.000004 -19.39,0 -35,-15.61 -35,-35.000004 0,-19.39 15.61,-35 35,-35 0,0 0,0 0,0"
           id="path4431" />
        <path
           inkscape:connector-curvature="0"
           style="fill:#00ccff;fill-opacity:1;stroke:#2e75ac;stroke-width:7.757;stroke-linejoin:round;stroke-miterlimit:4;stroke-opacity:1"
           d="m 370.30613,53.790756 c 19.39,0 35,15.61 35,35 0,19.390004 -15.61,35.000004 -35,35.000004 -19.39,0 -35,-15.61 -35,-35.000004 0,-19.39 15.61,-35 35,-35 0,0 0,0 0,0"
           id="path4433" />
        <path
           inkscape:connector-curvature="0"
           style="fill:#00ccff;fill-opacity:1;stroke:#2e75ac;stroke-width:7.757;stroke-linejoin:round;stroke-miterlimit:4;stroke-opacity:1"
           d="m 431.93879,53.790756 c 19.39,0 35,15.61 35,35 0,19.390004 -15.61,35.000004 -35,35.000004 -19.39,0 -35,-15.61 -35,-35.000004 0,-19.39 15.61,-35 35,-35 0,0 0,0 0,0"
           id="path4435" />
      </g>
      <text
  
         xml:space="preserve"
         style="font-style:normal;font-variant:normal;font-weight:normal;font-stretch:normal;font-size:6px;line-height:1.25;font-family:'Liberation Sans',Arial,sans-serif;-inkscape-font-specification:'sans-serif Normal';font-variant-ligatures:normal;font-variant-caps:normal;font-variant-numeric:normal;font-variant-east-asian:normal;fill:#000000;fill-opacity:1;stroke:none;stroke-width:1px;stroke-linecap:butt;stroke-linejoin:miter;stroke-opacity:1"
         x="-0.59277618"
         y="47.577751"
         id="text743"><tspan
           sodipodi:role="line"
           id="tspan747"
           x="-0.59277618"
           y="47.577751">Exponent: 0.0</tspan><tspan
           sodipodi:role="line"
           x="-0.59277618"
           y="55.077751"
           id="tspan749">Interpolation Steps: 6</tspan><tspan
           sodipodi:role="line"
           x="-0.59277618"
           y="62.577751"
           id="tspan751">Interpolation Method: 2</tspan><tspan
           sodipodi:role="line"
           x="-0.59277618"
           y="70.077751"
           id="tspan753">Duplicate Endpaths: unchecked</tspan><tspan
           sodipodi:role="line"
           x="-0.59277618"
           y="77.577751"
           id="tspan755">Interpolate Style: unchecked</tspan></text>
    </g>
  </g>
</svg>
